{
    "fb_banner": "391181315986777_391181809320061",
    "fb_interstitial": "391181315986777_391183959319846",
    "fb_native": "391181315986777_391184335986475",
    "fb_mid_rect": "391181315986777_391184239319818",
    "admob_pub_id": "pub-7144040569254180",
    "admob_app_id": "ca-app-pub-7144040569254180~1015753481",
    "admob_banner": "ca-app-pub-7144040569254180/9530019397",
    "admob_interstitial": "ca-app-pub-7144040569254180/6855754594",
    "admob_native": "ca-app-pub-7144040569254180/7585031262",
    "ad_type": "1",
    "new_pkg": "com.abc.lyrical",
    "is_version": "false"
}

